{
  "prepare_queue": {
    "installed": [],
    "uninstalled": []
  },
  "config_munge": {
    "files": {
      "config.xml": {
        "parents": {
          "/*": [
            {
              "xml": "<feature name=\"AdMob\"><param name=\"ios-package\" value=\"CDVAdMob\" /></feature>",
              "count": 1
            }
          ]
        }
      }
    }
  },
  "installed_plugins": {
    "cordova-plugin-whitelist": {
      "PACKAGE_NAME": "io.cordova.helloworld"
    },
    "cordova-promise-polyfill": {
      "PACKAGE_NAME": "io.cordova.helloworld"
    },
    "cordova-admob-sdk": {
      "PACKAGE_NAME": "io.cordova.helloworld"
    },
    "cordova-plugin-admob-free": {
      "PACKAGE_NAME": "io.cordova.helloworld"
    }
  },
  "dependent_plugins": {},
  "modules": [
    {
      "id": "cordova-promise-polyfill.Promise",
      "file": "plugins/cordova-promise-polyfill/www/Promise.js",
      "pluginId": "cordova-promise-polyfill",
      "runs": true
    },
    {
      "id": "cordova-promise-polyfill.promise.min",
      "file": "plugins/cordova-promise-polyfill/www/promise.min.js",
      "pluginId": "cordova-promise-polyfill"
    },
    {
      "id": "cordova-plugin-admob-free.AdMob",
      "file": "plugins/cordova-plugin-admob-free/www/admob.js",
      "pluginId": "cordova-plugin-admob-free",
      "clobbers": [
        "admob",
        "AdMob",
        "plugins.AdMob"
      ]
    }
  ],
  "plugin_metadata": {
    "cordova-plugin-whitelist": "1.3.3",
    "cordova-promise-polyfill": "0.0.2",
    "cordova-admob-sdk": "0.15.1",
    "cordova-plugin-admob-free": "0.15.0"
  }
}